…
    write.table(Summary_Set,"Dataset.txt")
    Summary_Set

    ## # A tibble: 180 x 68
    ## # Groups:   Subject [30]
    ##    Subject Activity `1 tBodyAcc-mea… `2 tBodyAcc-mea… `3 tBodyAcc-mea…
    ##    <fct>   <fct>               <dbl>            <dbl>            <dbl>
    ##  1 1       WALKING             0.277         -0.0174           -0.111 
    ##  2 1       WALKING…            0.255         -0.0240           -0.0973
    ##  3 1       WALKING…            0.289         -0.00992          -0.108 
    ##  4 1       SITTING             0.261         -0.00131          -0.105 
    ##  5 1       STANDING            0.279         -0.0161           -0.111 
    ##  6 1       LAYING              0.222         -0.0405           -0.113 
    ##  7 2       WALKING             0.276         -0.0186           -0.106 
    ##  8 2       WALKING…            0.247         -0.0214           -0.153 
    ##  9 2       WALKING…            0.278         -0.0227           -0.117 
    ## 10 2       SITTING             0.277         -0.0157           -0.109 
    ## # … with 170 more rows, and 63 more variables: `41 tGravityAcc-mean()-X` <dbl>,
    ## #   `42 tGravityAcc-mean()-Y` <dbl>, `43 tGravityAcc-mean()-Z` <dbl>, `81
    ## #   tBodyAccJerk-mean()-X` <dbl>, `82 tBodyAccJerk-mean()-Y` <dbl>, `83
    ## #   tBodyAccJerk-mean()-Z` <dbl>, `121 tBodyGyro-mean()-X` <dbl>, `122
    ## #   tBodyGyro-mean()-Y` <dbl>, `123 tBodyGyro-mean()-Z` <dbl>, `161
    ## #   tBodyGyroJerk-mean()-X` <dbl>, `162 tBodyGyroJerk-mean()-Y` <dbl>, `163
    ## #   tBodyGyroJerk-mean()-Z` <dbl>, `201 tBodyAccMag-mean()` <dbl>, `214
    ## #   tGravityAccMag-mean()` <dbl>, `227 tBodyAccJerkMag-mean()` <dbl>, `240
    ## #   tBodyGyroMag-mean()` <dbl>, `253 tBodyGyroJerkMag-mean()` <dbl>, `266
…
